<?xml version="1.0" encoding="utf-8"?>
<!-- Generator: Adobe Illustrator 23.0.1, SVG Export Plug-In . SVG Version: 6.00 Build 0)  -->
<svg version="1.1" id="Ebene_1" xmlns="http://www.w3.org/2000/svg" xmlns:xlink="http://www.w3.org/1999/xlink" x="0px" y="0px"
	 viewBox="0 0 48 48" style="enable-background:new 0 0 48 48;" xml:space="preserve">
<style type="text/css">
	.st0{fill:#2BBAE7;}
	.st1{fill:#FFFFFF;}
</style>
<circle class="st0" cx="24" cy="24" r="24"/>
<g>
	<g>
		<g>
			<path class="st1" d="M27.58,33.5c-0.37,0-0.71-0.26-0.79-0.64l-3.02-14.18l-1.9-0.22c-0.44-0.05-0.76-0.45-0.71-0.89
				c0.05-0.44,0.45-0.76,0.89-0.71l2.47,0.28c0.34,0.04,0.62,0.29,0.69,0.63l2.98,13.99l9.68-1.7c0.44-0.08,0.85,0.22,0.93,0.65
				c0.08,0.44-0.22,0.85-0.65,0.93l-10.45,1.83C27.67,33.49,27.62,33.5,27.58,33.5z"/>
		</g>
		<g>
			<path class="st1" d="M26.88,36.88c-1.42,0-2.57-1.15-2.57-2.57c0-1.42,1.15-2.57,2.57-2.57c1.42,0,2.57,1.15,2.57,2.57
				C29.45,35.73,28.3,36.88,26.88,36.88z M26.88,33.35c-0.53,0-0.96,0.43-0.96,0.96c0,0.53,0.43,0.96,0.96,0.96
				c0.53,0,0.96-0.43,0.96-0.96C27.84,33.78,27.41,33.35,26.88,33.35z"/>
		</g>
		<path class="st1" d="M37.01,29.45l-7.08,1.35c-0.74,0.14-1.45-0.36-1.59-1.09l-0.72-3.91c-0.14-0.74,0.36-1.45,1.09-1.59
			l7.08-1.35c0.74-0.14,1.45,0.36,1.59,1.09l0.72,3.91C38.23,28.6,37.74,29.32,37.01,29.45z"/>
		<path class="st1" d="M32.88,22.76l-4.75,0.91c-0.49,0.09-0.97-0.24-1.06-0.73l-0.48-2.63c-0.09-0.49,0.24-0.97,0.73-1.06
			l4.75-0.91c0.49-0.09,0.97,0.24,1.06,0.73l0.48,2.63C33.7,22.19,33.37,22.67,32.88,22.76z"/>
	</g>
	<g>
		<path class="st1" d="M21.16,36.91c-0.58,0-1.09-0.42-1.18-1.01l-0.86-5.32l-5.53-2.69c-0.33-0.16-0.57-0.46-0.64-0.82l-1.87-8.46
			c-0.14-0.65,0.26-1.29,0.91-1.43c0.64-0.14,1.29,0.26,1.43,0.91l1.75,7.9l5.57,2.71c0.35,0.17,0.6,0.5,0.66,0.89l0.96,5.93
			c0.11,0.65-0.34,1.27-0.99,1.37C21.29,36.91,21.23,36.91,21.16,36.91z"/>
	</g>
	<g>
		<path class="st1" d="M16.33,28.06l-1.26-8.63c-0.15-1.16-1.13-2.02-2.3-2.02h-1.36l2.69,9.4L16.33,28.06z"/>
	</g>
	<g>
		<path class="st1" d="M18.92,20.98c-0.09,0-0.18-0.01-0.26-0.04l-5.62-1.73c-0.47-0.15-0.74-0.65-0.59-1.12
			c0.15-0.47,0.65-0.74,1.12-0.59l5.1,1.57l2.76-2.83c0.35-0.36,0.92-0.36,1.27-0.02c0.36,0.35,0.36,0.92,0.02,1.27l-3.14,3.22
			C19.39,20.89,19.16,20.98,18.92,20.98z"/>
	</g>
	<g>
		<path class="st1" d="M10.37,37.18c-0.31,0-0.62-0.12-0.86-0.36c-0.46-0.47-0.45-1.23,0.02-1.69l3.91-3.83l-0.52-4.34
			c-0.08-0.66,0.39-1.25,1.05-1.33c0.66-0.08,1.25,0.39,1.33,1.05l0.59,4.93c0.04,0.37-0.09,0.74-0.35,1l-4.33,4.24
			C10.98,37.07,10.67,37.18,10.37,37.18z"/>
	</g>
	<g>
		
			<ellipse transform="matrix(0.1224 -0.9925 0.9925 0.1224 -1.0518 26.4033)" class="st1" cx="14.4" cy="13.8" rx="2.98" ry="2.98"/>
	</g>
	<g>
		<path class="st1" d="M18.37,13.81h-2.43c-0.3,0-0.55-0.25-0.55-0.55l0,0c0-0.3,0.25-0.55,0.55-0.55h2.43
			c0.3,0,0.55,0.25,0.55,0.55l0,0C18.92,13.56,18.67,13.81,18.37,13.81z"/>
	</g>
	<g>
		<path class="st1" d="M11.13,17.89c0,0,0.45-1.61,2.6-0.32l-1.36,0.99L11.13,17.89z"/>
	</g>
</g>
</svg>
